<?xml version="1.0" encoding="UTF-8" standalone="no"?>
<svg
	xmlns="http://www.w3.org/2000/svg"
	xmlns:svg="http://www.w3.org/2000/svg"
	xmlns:xlink="http://www.w3.org/1999/xlink"
	version="1.1"
	viewBox="0 0 100 100"
	width="128px" height="128px"
>
	<style>
		.background {
			fill: #121212;
		}

		.arrow {
			fill: lightgreen;
			transform: scale(7);
		}

		.cross {
			fill: white;
		}

		.cross-big {
			transform: scale(2);
		}

		.cross-small {
			transform: scale(1.2);
		}
	</style>
	<defs>
		<path
			id="arrow"
			d="
				m -1,4
				l
					 2, 0
					 0,-5
					 2, 0
					-3,-3
					-3, 3
					 2, 0
					 0, 5
				z
			"
		/>
		<path
			id="cross"
			d="
				m -1,0
				l
					 0,-4
					 2, 0
					 0, 4
					 4, 0
					 0, 2
					-4, 0
					 0, 4
					-2, 0
					 0,-4
					-4, 0
					 0,-2
					 4, 0
				z
			"
		/>
	</defs>

	<rect class="background" width="100" height="100" />

	<g transform="translate(45,55)">
		<use href="#arrow" class="arrow" />
	</g>
	<g transform="translate(65,20)">
		<use href="#cross" class="cross cross-big" />
	</g>
	<g transform="translate(80,35)">
		<use href="#cross" class="cross cross-small" />
	</g>
</svg>
