<!-- generate with : inkscape --export-type png --export-filename icon.png icon.svg -->
<?xml version="1.0" encoding="UTF-8"?>
<svg viewBox="0 0 512 512" xmlns="http://www.w3.org/2000/svg">
	<path fill="#264DE4" d="M71,460 L30,0 481,0 440,460 255,512"/>
	<path fill="#2965F1" d="M256,472 L405,431 440,37 256,37"/>
	<path fill="#E34F26" d="M51,235 L30,0 256,0 256,235 M256,235 L460.2,235 440,460 256,512"/>
	<path fill="#EF652A" d="M256,472 L405,431 422,235 256,235"/>
	<path fill="#EBEBEB" d="M256,208 L181,208 176,150 256,150 256,94 255,94 114,94 115,109 129,265 256,265 z M256,355 L255,355 192,338 188,293 158,293 132,293 139,382 255,414 256,414 z"/>
	<path fill="#FFF" d="M256 208 v57 H325 l-7,73 -63,17 v59 l116,-32 0,-10 13,-149 1,-15 10,-114 H256 v56 h80 L330,208 z"/>
</svg>
